<?xml version="1.0" encoding="UTF-8"?>
<Project>
   <description></description>
   <name>InvestisLive-Webcasting</name>
   <tag></tag>
   <UUID>5e95182d-bb4d-48c3-af60-e796f20443a5</UUID>
   <migratedVersion>5.9.0</migratedVersion>
   <pageLoadTimeout>0</pageLoadTimeout>
   <projectFileLocation>C:\Users\dinesh.karpenter\Katalon Studio\InvestisLive-Webcasting_FinalDemoUserAdmin6may2020\InvestisLive-Webcasting\InvestisLive-Webcasting.prj</projectFileLocation>
   <sourceContent>
      <sourceFolderList>
         <sourceFolderConfiguration>
            <url>Include/scripts/groovy</url>
         </sourceFolderConfiguration>
      </sourceFolderList>
      <systemFolderList>
         <systemFolderConfiguration>
            <url>Include/scripts/groovy</url>
         </systemFolderConfiguration>
         <systemFolderConfiguration>
            <url>Include/features</url>
         </systemFolderConfiguration>
         <systemFolderConfiguration>
            <url>Include/config</url>
         </systemFolderConfiguration>
      </systemFolderList>
   </sourceContent>
   <type>WEBUI</type>
</Project>
